         run       event       nTopo   nIdTracks       nJets      nMuons
      330470  1183722158           1           0           0           0
      330470  1183722342         394         402          20           0
      330470  1183727953         532         561          11           5
      330470  1183732647         467         442          13           1
      330470  1183733040         381         283           6           1
      330470  1183734651         361         355          14           3
      330470  1183735332         406         368           9           1
      330470  1183736475         741         643          15           2
      330470  1183738728           1           0           0           0
      330470  1183738949         368         408           9           1
      330470  1183742489         152         123           2           1
      330470  1183743040         285         303           5           0
      330470  1183746343         492         450          14           0
      330470  1183746710           6           0           0           0
      330470  1183751782         239         230           5           0
      330470  1183752624         347         342           8           3
      330470  1183753006         357         372          11           3
      330470  1183754806         470         400          14           0
      330470  1183769295         342         318           7           2
      330470  1183769939         348         337          11           3
      330470  1183773832         307         199           7           0
      330470  1183775209          57           0           0           0
      330470  1183787124         431         355          11           2
      330470  1183787946         321         309           5           1
      330470  1183795329         458         329          18           0
